<?xml version="1.0"?>
<svg xmlns="http://www.w3.org/2000/svg" xmlns:xlink="http://www.w3.org/1999/xlink" version="1.1" id="Layer_1" x="0px" y="0px" viewBox="0 0 259.9 51.8" style="enable-background:new 0 0 259.9 51.8;" xml:space="preserve">
<style type="text/css">
	.st0{fill:#FFFFFF;}
</style>
<path id="path0_fill_1_" class="st0" d="M94.4,30.7L90,47h-4.7l-2.9-10.6L79.5,47h-4.7l-4.4-16.3h4.4l2.5,11.2l3-11.2h4.2l2.9,11.2  l2.6-11.2H94.4z M109.1,41.6h-9.1c0.1,1,0.4,1.7,1.1,2.2c0.7,0.5,1.7,0.8,3,0.8c0.8,0,1.6-0.2,2.4-0.5c0.8-0.3,1.4-0.6,1.9-1h0.4  v3.2c-0.9,0.4-1.7,0.6-2.5,0.8c-0.8,0.2-1.7,0.2-2.6,0.2c-2.5,0-4.4-0.6-5.7-1.7c-1.3-1.1-2-2.7-2-4.8c0-2,0.6-3.6,1.9-4.8  c1.3-1.2,3-1.8,5.1-1.8c2,0,3.5,0.5,4.5,1.5c1,1,1.5,2.5,1.5,4.4V41.6z M105.2,39.3c0-0.8-0.2-1.4-0.6-1.9c-0.4-0.4-1-0.6-1.8-0.6  c-0.8,0-1.4,0.2-1.9,0.6c-0.5,0.4-0.8,1-0.8,1.9H105.2z M124.8,40.7c0,1.9-0.5,3.5-1.6,4.7c-1.1,1.2-2.4,1.8-4,1.8  c-0.7,0-1.3-0.1-1.8-0.2c-0.5-0.1-1-0.4-1.5-0.6l-0.2,0.6h-3.8V30h4v6c0.6-0.5,1.2-0.9,1.9-1.2c0.6-0.3,1.4-0.4,2.2-0.4  c1.6,0,2.8,0.6,3.6,1.7C124.4,37.2,124.8,38.7,124.8,40.7z M120.7,40.8c0-1.1-0.2-1.9-0.6-2.5c-0.4-0.6-1-0.9-2-0.9  c-0.4,0-0.8,0.1-1.2,0.2c-0.4,0.1-0.8,0.3-1.1,0.5v6.2c0.3,0.1,0.6,0.2,0.8,0.2c0.3,0,0.6,0.1,0.9,0.1c1,0,1.8-0.3,2.3-0.9  C120.5,42.9,120.7,42,120.7,40.8z M138.4,43.1c0,1.3-0.6,2.3-1.7,3.1c-1.1,0.8-2.7,1.2-4.7,1.2c-1.1,0-2.1-0.1-3-0.3  c-0.9-0.2-1.6-0.4-2.2-0.7v-3.2h0.4c0.2,0.1,0.4,0.3,0.7,0.5c0.3,0.2,0.6,0.3,1.1,0.5c0.4,0.2,0.9,0.3,1.4,0.4  c0.5,0.1,1.1,0.2,1.7,0.2c0.8,0,1.4-0.1,1.7-0.3c0.4-0.2,0.6-0.4,0.6-0.8c0-0.3-0.1-0.5-0.3-0.6c-0.2-0.1-0.6-0.3-1.3-0.4  c-0.3-0.1-0.7-0.1-1.2-0.2c-0.5-0.1-1-0.2-1.4-0.3c-1.1-0.3-2-0.7-2.5-1.4c-0.5-0.6-0.8-1.4-0.8-2.3c0-1.2,0.6-2.2,1.7-3  c1.1-0.8,2.7-1.2,4.6-1.2c0.9,0,1.8,0.1,2.6,0.3c0.8,0.2,1.5,0.4,2,0.6v3.1h-0.3c-0.6-0.4-1.3-0.7-2-1c-0.7-0.3-1.5-0.4-2.3-0.4  c-0.6,0-1.2,0.1-1.6,0.3c-0.4,0.2-0.6,0.4-0.6,0.7c0,0.3,0.1,0.5,0.3,0.7c0.2,0.2,0.7,0.3,1.4,0.5c0.4,0.1,0.8,0.2,1.3,0.2  c0.5,0.1,0.9,0.2,1.4,0.3c1,0.3,1.8,0.7,2.3,1.3C138.1,41.5,138.4,42.3,138.4,43.1z M145,47h-4V34.7h4V47z M145.1,33h-4.2v-3h4.2V33  z M156.6,46.9c-0.4,0.1-0.9,0.2-1.4,0.3c-0.5,0.1-1.1,0.1-1.7,0.1c-1.5,0-2.7-0.3-3.4-0.9c-0.7-0.6-1.1-1.7-1.1-3.2v-5.8h-1.6v-2.7  h1.6v-3.5h4v3.5h3.7v2.7h-3.7v4.4c0,0.4,0,0.8,0,1.1c0,0.3,0.1,0.6,0.2,0.9c0.1,0.3,0.3,0.5,0.5,0.6c0.3,0.1,0.6,0.2,1.1,0.2  c0.2,0,0.5,0,0.8-0.1c0.3-0.1,0.6-0.2,0.7-0.2h0.3V46.9z M171.1,41.6h-9.1c0.1,1,0.4,1.7,1.1,2.2c0.7,0.5,1.7,0.8,3,0.8  c0.8,0,1.6-0.2,2.4-0.5c0.8-0.3,1.4-0.6,1.9-1h0.4v3.2c-0.9,0.4-1.7,0.6-2.5,0.8c-0.8,0.2-1.7,0.2-2.6,0.2c-2.5,0-4.4-0.6-5.7-1.7  c-1.3-1.1-2-2.7-2-4.8c0-2,0.6-3.6,1.9-4.8c1.3-1.2,3-1.8,5.1-1.8c2,0,3.5,0.5,4.5,1.5c1,1,1.5,2.5,1.5,4.4V41.6z M167.2,39.3  c0-0.8-0.2-1.4-0.6-1.9c-0.4-0.4-1-0.6-1.8-0.6c-0.8,0-1.4,0.2-1.9,0.6c-0.5,0.4-0.8,1-0.8,1.9H167.2z M181.5,47.4  c-1.2,0-2.3-0.2-3.4-0.5c-1-0.4-1.9-0.9-2.6-1.6c-0.7-0.7-1.3-1.6-1.7-2.7c-0.4-1.1-0.6-2.3-0.6-3.7c0-1.3,0.2-2.5,0.6-3.5  c0.4-1.1,1-2,1.7-2.7c0.7-0.7,1.6-1.3,2.6-1.7c1.1-0.4,2.2-0.6,3.4-0.6c0.7,0,1.3,0,1.9,0.1c0.6,0.1,1.1,0.2,1.5,0.3  c0.5,0.1,0.9,0.3,1.3,0.5c0.4,0.2,0.8,0.3,1.1,0.5v4h-0.5c-0.2-0.2-0.5-0.4-0.8-0.6c-0.3-0.2-0.7-0.5-1.1-0.7  c-0.4-0.2-0.8-0.4-1.3-0.6c-0.5-0.2-1-0.2-1.5-0.2c-0.6,0-1.2,0.1-1.7,0.3c-0.5,0.2-1,0.5-1.5,0.9c-0.4,0.4-0.8,1-1.1,1.7  c-0.3,0.7-0.4,1.5-0.4,2.5c0,1,0.1,1.9,0.4,2.6c0.3,0.7,0.7,1.2,1.1,1.6c0.4,0.4,0.9,0.7,1.5,0.9c0.5,0.2,1.1,0.3,1.6,0.3  c0.5,0,1-0.1,1.5-0.2c0.5-0.2,1-0.4,1.4-0.6c0.4-0.2,0.7-0.4,1-0.7c0.3-0.2,0.6-0.4,0.8-0.6h0.4V46c-0.4,0.2-0.8,0.4-1.2,0.5  c-0.4,0.2-0.8,0.3-1.2,0.4c-0.5,0.2-1,0.3-1.5,0.4C183,47.3,182.3,47.4,181.5,47.4z M197.6,43.8v-2.6c-0.5,0-1.1,0.1-1.7,0.2  c-0.6,0.1-1.1,0.2-1.4,0.3c-0.4,0.1-0.7,0.3-0.9,0.5c-0.2,0.2-0.3,0.5-0.3,0.9c0,0.3,0,0.5,0.1,0.6c0,0.2,0.2,0.3,0.3,0.5  c0.2,0.1,0.4,0.3,0.6,0.3c0.2,0.1,0.6,0.1,1.1,0.1c0.4,0,0.8-0.1,1.2-0.2C197,44.3,197.3,44.1,197.6,43.8z M197.6,45.7  c-0.2,0.2-0.5,0.4-0.8,0.6c-0.3,0.2-0.6,0.4-0.9,0.5c-0.4,0.2-0.8,0.3-1.2,0.4c-0.4,0.1-0.9,0.1-1.4,0.1c-1.2,0-2.2-0.4-2.9-1.1  s-1.2-1.6-1.2-2.8c0-0.9,0.2-1.6,0.6-2.2c0.4-0.6,1-1,1.7-1.3c0.7-0.3,1.6-0.6,2.7-0.7c1.1-0.1,2.2-0.2,3.4-0.3v-0.1  c0-0.7-0.3-1.1-0.8-1.4c-0.6-0.3-1.4-0.4-2.5-0.4c-0.7,0-1.3,0.1-2.1,0.4c-0.7,0.2-1.3,0.4-1.6,0.5h-0.4v-3c0.4-0.1,1.1-0.2,2-0.4  c0.9-0.2,1.9-0.2,2.8-0.2c2.2,0,3.9,0.3,4.9,1c1,0.7,1.5,1.8,1.5,3.2V47h-3.9V45.7z M214.1,38.5h-0.4c-0.2-0.1-0.4-0.1-0.8-0.1  c-0.4,0-0.7,0-0.9,0c-0.6,0-1.1,0-1.5,0.1c-0.4,0.1-0.9,0.2-1.4,0.4V47h-4V34.7h4v1.8c0.9-0.7,1.6-1.2,2.3-1.5  c0.6-0.2,1.2-0.4,1.8-0.4c0.1,0,0.3,0,0.5,0c0.2,0,0.3,0,0.5,0V38.5z M229.3,40.7c0,1.9-0.5,3.5-1.6,4.7c-1.1,1.2-2.4,1.8-4,1.8  c-0.7,0-1.3-0.1-1.8-0.2c-0.5-0.1-1-0.4-1.5-0.6l-0.2,0.6h-3.8V30h4v6c0.6-0.5,1.2-0.9,1.9-1.2c0.6-0.3,1.4-0.4,2.2-0.4  c1.6,0,2.8,0.6,3.6,1.7C228.8,37.2,229.3,38.7,229.3,40.7z M225.2,40.8c0-1.1-0.2-1.9-0.6-2.5c-0.4-0.6-1-0.9-2-0.9  c-0.4,0-0.8,0.1-1.2,0.2c-0.4,0.1-0.8,0.3-1.1,0.5v6.2c0.3,0.1,0.6,0.2,0.8,0.2c0.3,0,0.6,0.1,0.9,0.1c1,0,1.8-0.3,2.3-0.9  C224.9,42.9,225.2,42,225.2,40.8z M244.7,40.9c0,2-0.6,3.6-1.8,4.8c-1.2,1.2-2.8,1.7-5,1.7c-2.1,0-3.8-0.6-5-1.7  c-1.2-1.2-1.8-2.8-1.8-4.8c0-2,0.6-3.6,1.8-4.8c1.2-1.2,2.9-1.7,5-1.7c2.2,0,3.8,0.6,5,1.8C244.1,37.3,244.7,38.9,244.7,40.9z   M239.9,43.9c0.3-0.3,0.4-0.7,0.6-1.1c0.1-0.4,0.2-1.1,0.2-1.8c0-0.7-0.1-1.3-0.2-1.8s-0.3-0.9-0.5-1.2c-0.2-0.3-0.5-0.5-0.8-0.6  c-0.3-0.1-0.7-0.2-1.1-0.2c-0.4,0-0.7,0.1-1,0.2c-0.3,0.1-0.6,0.3-0.8,0.6c-0.2,0.3-0.4,0.7-0.6,1.2c-0.1,0.5-0.2,1.1-0.2,1.9  c0,0.7,0.1,1.3,0.2,1.8c0.1,0.5,0.3,0.9,0.5,1.2c0.2,0.3,0.5,0.5,0.8,0.6c0.3,0.1,0.7,0.2,1.1,0.2c0.4,0,0.7-0.1,1-0.2  C239.4,44.4,239.6,44.2,239.9,43.9z M259.9,47h-4v-6.1c0-0.5,0-1-0.1-1.5c-0.1-0.5-0.1-0.9-0.3-1.1c-0.1-0.3-0.4-0.5-0.6-0.6  c-0.3-0.1-0.7-0.2-1.2-0.2c-0.4,0-0.7,0.1-1.1,0.2c-0.4,0.1-0.8,0.3-1.2,0.6V47h-4V34.7h4v1.4c0.7-0.5,1.4-1,2-1.3  c0.7-0.3,1.4-0.4,2.2-0.4c1.3,0,2.4,0.4,3.1,1.2c0.8,0.8,1.1,1.9,1.1,3.5V47z"/>
<path id="path1_fill_1_" class="st0" d="M42.2,23.8c-0.7-3-2.4-5.7-4.7-7.8c-2.8-2.4-6.3-3.8-10-3.8c-8.3,0-15.1,6.8-15.1,15.1  c0,0.1,0,0.3,0,0.4c-0.1,0-0.3,0-0.4,0C5.4,27.7,0,33.1,0,39.8s5.4,12.1,12.1,12.1h30.1c7.7,0,14-6.3,14-14  C56.3,30.1,50,23.8,42.2,23.8z M42.2,48.6H12.1c-4.8,0-8.8-3.9-8.8-8.8c0-4.8,3.9-8.8,8.8-8.8c0.6,0,1.3,0.1,1.9,0.2l2.4,0.5  l-0.4-2.4c-0.1-0.7-0.2-1.3-0.2-2c0-6.5,5.3-11.8,11.8-11.8c5.9,0,10.9,4.4,11.7,10.2l0.2,1.6l1.6-0.2c0.4,0,0.8-0.1,1.2-0.1  c5.9,0,10.7,4.8,10.7,10.7C53,43.7,48.1,48.6,42.2,48.6z"/>
<path id="path2_fill_1_" class="st0" d="M25.5,39c-0.1,0.3-0.3,0.6-0.5,0.8c-0.2,0.2-0.4,0.4-0.7,0.5c-0.3,0.1-0.5,0.2-0.8,0.3  c-0.3,0.1-0.5,0.1-0.8,0.1c-0.5,0-1-0.1-1.4-0.3c-0.4-0.2-0.8-0.5-1.1-0.8c-0.3-0.4-0.5-0.8-0.7-1.2c-0.2-0.5-0.2-0.9-0.2-1.4  c0-0.5,0.1-0.9,0.2-1.4c0.1-0.5,0.3-0.9,0.6-1.2c0.3-0.4,0.6-0.6,1-0.9c0.4-0.2,0.9-0.3,1.5-0.3c0.3,0,0.5,0,0.8,0.1  c0.3,0.1,0.5,0.1,0.8,0.3c0.3,0.1,0.5,0.3,0.7,0.5c0.2,0.2,0.4,0.5,0.5,0.8l2.2-1.6c-0.4-0.8-1.1-1.5-1.9-2  c-0.9-0.5-1.9-0.8-3.1-0.8c-1,0-1.9,0.2-2.7,0.6c-0.8,0.4-1.4,0.8-2,1.4c-0.5,0.6-1,1.3-1.2,2c-0.3,0.8-0.4,1.5-0.4,2.3  c0,0.8,0.2,1.6,0.5,2.4c0.3,0.8,0.7,1.5,1.3,2.1c0.6,0.6,1.2,1.1,2,1.5c0.8,0.4,1.6,0.6,2.5,0.6c0.5,0,1.1-0.1,1.6-0.2  c0.5-0.1,1.1-0.3,1.5-0.6c0.5-0.2,0.9-0.6,1.3-0.9c0.4-0.4,0.7-0.8,0.8-1.2L25.5,39z"/>
<path id="path3_fill_1_" class="st0" d="M40.6,34.6c-0.3-0.8-0.7-1.5-1.3-2.1c-0.5-0.6-1.2-1.1-2-1.5c-0.8-0.4-1.6-0.6-2.6-0.6  c-0.9,0-1.8,0.2-2.5,0.5c-0.8,0.3-1.4,0.8-2,1.4c-0.6,0.6-1,1.3-1.3,2c-0.3,0.8-0.5,1.6-0.5,2.4c0,0.8,0.2,1.6,0.5,2.4  c0.3,0.8,0.7,1.5,1.3,2.1c0.5,0.6,1.2,1.1,2,1.4c0.8,0.4,1.6,0.6,2.6,0.6c0.9,0,1.8-0.2,2.5-0.5c0.8-0.4,1.4-0.8,2-1.4  c0.6-0.6,1-1.3,1.3-2c0.3-0.8,0.5-1.6,0.5-2.4C41.1,36.2,40.9,35.4,40.6,34.6z M37.9,38.3c-0.1,0.5-0.3,0.9-0.6,1.2  c-0.3,0.4-0.6,0.7-1,0.9c-0.4,0.2-0.9,0.3-1.5,0.3c-0.5,0-1-0.1-1.4-0.3c-0.4-0.2-0.8-0.5-1-0.9c-0.3-0.4-0.5-0.8-0.6-1.2  c-0.1-0.5-0.2-0.9-0.2-1.4c0-0.5,0.1-0.9,0.2-1.4c0.1-0.5,0.3-0.9,0.6-1.2c0.3-0.4,0.6-0.6,1-0.9c0.4-0.2,0.9-0.3,1.5-0.3  c0.5,0,1,0.1,1.4,0.3c0.4,0.2,0.8,0.5,1,0.8c0.3,0.3,0.5,0.8,0.6,1.2c0.1,0.5,0.2,0.9,0.2,1.4C38.1,37.4,38,37.9,37.9,38.3z"/>
<path id="path4_fill_1_" class="st0" d="M43,44.3c0.1-0.1,0.1-0.1,0.2-0.2c0.1-0.1,0.2-0.1,0.3-0.2c0.1-0.1,0.2-0.1,0.3-0.2  c0.1-0.1,0.2-0.1,0.3-0.2c0.1-0.1,0.2-0.2,0.4-0.2c0.1-0.1,0.2-0.2,0.3-0.3c0.1-0.1,0.2-0.2,0.2-0.4c0.1-0.1,0.1-0.3,0.1-0.5  c0-0.4-0.2-0.8-0.5-1.1c-0.3-0.3-0.8-0.4-1.4-0.4c-0.2,0-0.5,0-0.7,0.1c-0.2,0-0.4,0.1-0.6,0.2c-0.2,0.1-0.4,0.2-0.5,0.3  c-0.2,0.1-0.3,0.2-0.4,0.3l0.9,1c0.2-0.2,0.3-0.3,0.5-0.4c0.2-0.1,0.4-0.2,0.6-0.2c0.2,0,0.4,0,0.5,0.1c0.1,0.1,0.2,0.2,0.2,0.4  c0,0.1,0,0.1-0.1,0.2c0,0.1-0.1,0.1-0.2,0.2c-0.1,0.1-0.2,0.2-0.4,0.3c-0.2,0.1-0.4,0.2-0.7,0.4c-0.2,0.1-0.4,0.3-0.6,0.4  c-0.2,0.1-0.3,0.3-0.4,0.5c-0.1,0.2-0.2,0.4-0.2,0.6c0,0.2-0.1,0.4-0.1,0.7h4.2v-1.2H43z"/>
<path id="path5_fill_1_" class="st0" d="M6.9,20.5c-0.1,0.8,0.5,1.5,1.3,1.4c0.8,0,1.6-0.7,1.6-1.5c0.6-5.6,5.7-10.4,11.3-10.6  c0.4,0,0.8-0.2,1.1-0.5c0.3-0.3,0.5-0.7,0.5-1.1c0.1-0.8-0.5-1.5-1.3-1.4C14.3,7.1,7.7,13.2,6.9,20.5z"/>
<path id="path6_fill_1_" class="st0" d="M22.3,0C11.2,0.4,1.2,9.7,0,20.7c-0.1,0.8,0.5,1.5,1.3,1.4c0.8,0,1.6-0.7,1.6-1.5  c0.5-4.6,2.7-8.9,6.3-12.2C12.9,5.1,17.4,3.1,22,3c0.4,0,0.8-0.2,1.1-0.5c0.3-0.3,0.5-0.7,0.5-1.1C23.7,0.6,23.1,0,22.3,0z"/>
</svg>
